%YAML 1.1
%TAG !u! tag:unity3d.com,2011:
--- !u!74 &7400000
AnimationClip:
  m_ObjectHideFlags: 0
  m_CorrespondingSourceObject: {fileID: 0}
  m_PrefabInstance: {fileID: 0}
  m_PrefabAsset: {fileID: 0}
  m_Name: Hurt_Golem
  serializedVersion: 6
  m_Legacy: 0
  m_Compressed: 0
  m_UseHighQualityCurve: 1
  m_RotationCurves: []
  m_CompressedRotationCurves: []
  m_EulerCurves: []
  m_PositionCurves: []
  m_ScaleCurves: []
  m_FloatCurves: []
  m_PPtrCurves:
  - curve:
    - time: 0
      value: {fileID: 21300000, guid: ed200cd77b32e46fb97b07012ad9594f, type: 3}
    - time: 0.083333336
      value: {fileID: 21300000, guid: 4d3f4ce78d078468f9e424476ae6690b, type: 3}
    - time: 0.16666667
      value: {fileID: 21300000, guid: 06d3780003fd24eb7add329a8fbf9976, type: 3}
    - time: 0.25
      value: {fileID: 21300000, guid: 94ac555e0c93f4f2fb9a2c8ceb34fc56, type: 3}
    - time: 0.33333334
      value: {fileID: 21300000, guid: 664b53f47e41a464294d71e6157d02d4, type: 3}
    - time: 0.41666666
      value: {fileID: 21300000, guid: d47b071ff26e34dd89761171533504db, type: 3}
    - time: 0.5
      value: {fileID: 21300000, guid: 8c535e121835e4854a79aba15d522966, type: 3}
    - time: 0.5833333
      value: {fileID: 21300000, guid: ef1ba72e2c3e04b78baa7e262caf7047, type: 3}
    - time: 0.6666667
      value: {fileID: 21300000, guid: 11632d05397cd4c2b82bc1f212016e86, type: 3}
    - time: 0.75
      value: {fileID: 21300000, guid: 45f9cbd60604c451cad2d25a55a4dcbd, type: 3}
    - time: 0.8333333
      value: {fileID: 21300000, guid: f7933acf6e8d8459e9b7002f51f2bb0c, type: 3}
    - time: 0.9166667
      value: {fileID: 21300000, guid: ada7652ea84e8423f93a787d553c773d, type: 3}
    attribute: m_Sprite
    path: 
    classID: 212
    script: {fileID: 0}
  m_SampleRate: 60
  m_WrapMode: 0
  m_Bounds:
    m_Center: {x: 0, y: 0, z: 0}
    m_Extent: {x: 0, y: 0, z: 0}
  m_ClipBindingConstant:
    genericBindings:
    - serializedVersion: 2
      path: 0
      attribute: 0
      script: {fileID: 0}
      typeID: 212
      customType: 23
      isPPtrCurve: 1
    pptrCurveMapping:
    - {fileID: 21300000, guid: ed200cd77b32e46fb97b07012ad9594f, type: 3}
    - {fileID: 21300000, guid: 4d3f4ce78d078468f9e424476ae6690b, type: 3}
    - {fileID: 21300000, guid: 06d3780003fd24eb7add329a8fbf9976, type: 3}
    - {fileID: 21300000, guid: 94ac555e0c93f4f2fb9a2c8ceb34fc56, type: 3}
    - {fileID: 21300000, guid: 664b53f47e41a464294d71e6157d02d4, type: 3}
    - {fileID: 21300000, guid: d47b071ff26e34dd89761171533504db, type: 3}
    - {fileID: 21300000, guid: 8c535e121835e4854a79aba15d522966, type: 3}
    - {fileID: 21300000, guid: ef1ba72e2c3e04b78baa7e262caf7047, type: 3}
    - {fileID: 21300000, guid: 11632d05397cd4c2b82bc1f212016e86, type: 3}
    - {fileID: 21300000, guid: 45f9cbd60604c451cad2d25a55a4dcbd, type: 3}
    - {fileID: 21300000, guid: f7933acf6e8d8459e9b7002f51f2bb0c, type: 3}
    - {fileID: 21300000, guid: ada7652ea84e8423f93a787d553c773d, type: 3}
  m_AnimationClipSettings:
    serializedVersion: 2
    m_AdditiveReferencePoseClip: {fileID: 0}
    m_AdditiveReferencePoseTime: 0
    m_StartTime: 0
    m_StopTime: 0.93333334
    m_OrientationOffsetY: 0
    m_Level: 0
    m_CycleOffset: 0
    m_HasAdditiveReferencePose: 0
    m_LoopTime: 0
    m_LoopBlend: 0
    m_LoopBlendOrientation: 0
    m_LoopBlendPositionY: 0
    m_LoopBlendPositionXZ: 0
    m_KeepOriginalOrientation: 0
    m_KeepOriginalPositionY: 1
    m_KeepOriginalPositionXZ: 0
    m_HeightFromFeet: 0
    m_Mirror: 0
  m_EditorCurves: []
  m_EulerEditorCurves: []
  m_HasGenericRootTransform: 0
  m_HasMotionFloatCurves: 0
  m_Events: []
